[
  {"id":1,
  "name":"Thomas",
  "List_of_car":[
    {"color":"yellow",
      "type":"renault"},
    {"color":"black",
      "type":"ford"}]},
  {"id":2,
    "name":"Frank",
    "List_of_car":[
      {"color":"blue",
        "type":"ferrari"},
      {"color":"white",
        "type":"mercedes"}
    ]
  }
]